no;secteur;nom
1;1;Dominique TIAN
2;1;Sabine BERNASCONI
3;1;Frédérick BOUSQUET
4;1;Catherine PILA
5;1;Jean ROATTA
6;1;Maliza SAID SOILIHI
7;1;Frédéric JEANJEAN
8;1;Marie-José BATTISTA
9;1;René BACCINO
10;1;Catherine JALINOT-SUNHARY
11;1;Jean CRISTOFARI
1;2;Solange BIAGGI
2;2;Michel DARY
3;2;Lisette NARDUCCI
4;2;Gérard CHENOZ
5;2;Marie-Claude BRUGUIERE
6;2;Smaïl ALI
7;2;Nassera BELARBI
8;2;Michel AZOULAI
1;3;Bruno GILLES
2;3;Marine PUSTORINO
3;3;Maurice DI NOCERA
4;3;Marie-Louise LOTA
5;3;Patrick PADOVANI
6;3;Monique DAUBET-GRUNDLER
7;3;Julien RUAS
8;3;Marie-Hélène FERAUD-GREGORI
9;3;Philippe MEMOLI
10;3;Maryse AILLAUD
11;3;Albert LAPEYRE
1;4;M. Jean-Claude GAUDIN
2;4;Mme Martine VASSAL
3;4;M. Yves MORAINE
4;4;Mme Laure-Agnès CARADEC
5;4;M. Xavier MERY
6;4;Mme Dominique FLEURY VLASTO
7;4;M. Guillaume JOUVE
8;4;Mme Catherine GINER
9;4;M. Patrick ZAOUI
10;4;Mme Nora PREZIOSI
11;4;M. André MALRAIT
12;4;Mme Marie-Laure ROCCA-SERRA
13;4;M. Jean-Luc RICCA
14;4;Mme Marie-France OURET
15;4;M. Georges GOMEZ
1;5;Guy TEISSIER
2;5;Anne-Marie D'ESTIENNE D'ORVES
3;5;Lionel ROYER-PERREAUT
4;5;Nathalie SIMON
5;5;Didier REAULT
6;5;Catherine CHANTELOT
7;5;Patrice VANELLE
8;5;Séréna ZOUAGHI
9;5;Daniel SPERLING
10;5;Danielle CASANOVA
11;5;Thierry SANTELLI
12;5;Colette BABOUCHIAN
13;5;Daniel HERMANN
14;5;Sandra SALOUM-DALBIN
15;5;Maxime TOMMASINI
1;6;Roland BLUM
2;6;Valérie BOYER
3;6;Robert ASSANTE
4;6;Caroline POZMENTIER-SPORTICH
5;6;Didier PARAKIAN
6;6;Sylvie CARREGA
7;6;Maurice REY
8;6;Isabelle SAVON
9;6;Julien RAVIER
10;6;Mireille BALLETTI
11;6;Didier ZANINI
12;6;Virginie MONNET-CORTI
13;6;Gérard AUDIBERT
1;7;Richard MIRON
2;7;Monique CORDIER
3;7;Jean-Claude DELAGE
4;7;Caroline GALLO
5;7;Romain AIRAUDO
6;7;Elodie GRAC
7;7;Karim HERZALLAH
8;7;Marie-Laurence MACALUSO
9;7;Robert FUCHS
10;7;Christine HOSPITAL
11;7;Cédric DUPUY
12;7;Yasmine LAHOCINE
13;7;Nicolas COUTON
14;7;Françooise GUMINA
15;7;Jean-Marie HAHN
16;7;Johanna TROVATELLO
1;8;Arlette FRUCTUS
2;8;Jean-Marc CORTEGGIANI
3;8;Fazia HAMICHE
4;8;Hervé JOURDAN
5;8;Brigitte CASTELLA
6;8;Georges PANAGIOTOU
7;8;Céline AYCARD
8;8;Jean LOPY
9;8;Sabrina CHOULAK
10;8;Hassan GUENFICI
11;8;Stéphanie MATTEOLI
12;8;Raymond DELERIA