no;secteur;nom
1;1;Dominique DEMEESTER
2;1;Nathalie JEAN
3;1;William PINEDAS BORRAS
4;1;Corinne LEFEVRE
5;1;Arnaud VARRAINE
6;1;Suzanne MARIE
7;1;Patrick KEVORK
8;1;Laurence DELAYE
9;1;François PASSERON
10;1;Clémence PARODI
11;1;Patrick TOSO
1;2;Jeanne MARTI
2;2;Joël DUPUIS
3;2;Marie-Lou GERONIMO
4;2;Martin VICOMTE
5;2;Marguerite D'AMBROSIO
6;2;Jean-François MANNINO
7;2;Françoise LADET
8;2;Mario ILLIANO
1;3;Jean-Pierre BAUMANN
2;3;Roselyne AUDAN
3;3;Jean DAVID
4;3;Mauricette KERBRAT
5;3;Pascal MUNIER
6;3;Christel GARELLO
7;3;Roger HUBERT
8;3;Vanessa MARTIN
9;3;Patrick VAIRO
10;3;Martine FABRE
11;3;Julien DELAHAYE
1;4;Michel CATANEO
2;4;Huguette BATUT
3;4;Cedric MAZET
4;4;Mireille BARDE
5;4;Eddy GEMINI
6;4;Aurelie THIERSET
7;4;Marc MELLIAN
8;4;Dominique GRENIER
9;4;Jacques SAHUC
10;4;Marie-Elizabeth DREVETON
11;4;Francois BAEZA
12;4;Odile GRENET
13;4;Steve VIDAL
14;4;Evelyne ROSSI
15;4;Mathieu TORRENT
1;5;Laurent COMAS
2;5;Anne TOSO
3;5;Marcel MAUNIER
4;5;Annie VASSAL
5;5;MaxiALESSANDRI
6;5;Anaïs ORTEGA
7;5;Christian PRONO
8;5;Michelle HERAU
9;5;Robert TOLEDO
10;5;Jocelyne TRANI
11;5;Vincent VIDAL
12;5;Berthe DEMIRDJIAN
13;5;Philippe BAUDINOT
14;5;Marie TOMAS
15;5;Jean-Louis MUGNAIONI
1;6;Elisabeth PHILIPPE
2;6;Loïc BARAT
3;6;Sophie GRECH
4;6;Dorian TESSONNIER
5;6;Monique LEPORE
6;6;David BULTEZ
7;6;Corinne PEREZ
8;6;Félix BOUGANIM
9;6;Isabelle SYBILLAIN
10;6;Stéphane MERLO
11;6;Sylvie RAMILLON
12;6;Christian CAMPAILLA
13;6;Léa RATTI
1;7;Stéphane RAVIER
2;7;Sandrine D'ANGIO
3;7;Antoine MAGGIO
4;7;Marie MUSTACHIA
5;7;Jacques BESNAÏNOU
6;7;Maryvonne RIBIERE
7;7;Yves BEAUVAL
8;7;Sandra DUGUET
9;7;Georges MAURY
10;7;Gisèle LELOUIS
11;7;Dany LAMY
12;7;Monique FARKAS
13;7;Paul RABIA
14;7;Karine HAROUCHE
15;7;Vincent VENDREDI
16;7;Simone RAMPAL
1;8;Bernard MARANDAT
2;8;Marjorie BULOT
3;8;Paul CUPOLATI
4;8;Jeanne CASTEL
5;8;Guy BERTRAND DE BALANDA
6;8;Marie-Claude AUCOUTURIER
7;8;Jean-Paul MOLITOR
8;8;Anne BLANCHARD
9;8;Gilles DAUMEN
10;8;Martine RAPHAEL
11;8;François GABILLARD
12;8;Isabelle ROLLAND