secteur,Droite,Gauche,FN,exprimes
1,39.99,44.45,15.56,23480
2,50.68,31.01,18.31,14080
3,42.86,38.51,18.63,30111
5,47.16,26.51,26.33,42369
6,48.57,25.59,25.85,42337
7,28.72,37.35,33.93,39097
8,21.75,49.68,28.57,20920